{
	"AWSTemplateFormatVersion": "2010-09-09",
	"Description": "EKS Managed Nodes (SSH access: true) [created by eksctl]",
	"Mappings": {
		"ServicePrincipalPartitionMap": {
			"aws": {
				"EC2": "ec2.amazonaws.com",
				"EKS": "eks.amazonaws.com",
				"EKSFargatePods": "eks-fargate-pods.amazonaws.com"
			},
			"aws-cn": {
				"EC2": "ec2.amazonaws.com.cn",
				"EKS": "eks.amazonaws.com",
				"EKSFargatePods": "eks-fargate-pods.amazonaws.com"
			}
		}
	},
	"Resources": {
		"ManagedNodeGroup": {
			"Type": "AWS::EKS::Nodegroup",
			"Properties": {
				"ClusterName": "EKS-POC-Cluster",
				"NodegroupName": "EKS-POC-Worker-nodes",
				"ScalingConfig": {
					"MinSize": 1,
					"MaxSize": 1,
					"DesiredSize": 1
				},
				"Subnets": {
					"Fn::Split": [",", {
						"Fn::ImportValue": "eksctl-EKS-POC-Cluster-cluster::SubnetsPublic"
					}]
				},
				"InstanceTypes": ["t2.micro"],
				"AmiType": "AL2_x86_64",
				"RemoteAccess": {
					"Ec2SshKey": "eksctl-EKS-POC-Cluster-nodegroup-EKS-POC-Worker-nodes-db:3c:53:78:ec:29:eb:d6:06:4c:e8:0e:be:fd:4a:51"
				},
				"NodeRole": {
					"Fn::GetAtt": "NodeInstanceRole.Arn"
				},
				"Labels": {
					"alpha.eksctl.io/cluster-name": "EKS-POC-Cluster",
					"alpha.eksctl.io/nodegroup-name": "EKS-POC-Worker-nodes"
				},
				"Tags": {
					"alpha.eksctl.io/nodegroup-name": "EKS-POC-Worker-nodes",
					"alpha.eksctl.io/nodegroup-type": "managed"
				}
			}
		},
		"NodeInstanceRole": {
			"Type": "AWS::IAM::Role",
			"Properties": {
				"AssumeRolePolicyDocument": {
					"Statement": [{
						"Action": ["sts:AssumeRole"],
						"Effect": "Allow",
						"Principal": {
							"Service": [{
								"Fn::FindInMap": ["ServicePrincipalPartitionMap", {
									"Ref": "AWS::Partition"
								}, "EC2"]
							}]
						}
					}],
					"Version": "2012-10-17"
				},
				"ManagedPolicyArns": [{
					"Fn::Sub": "arn:${AWS::Partition}:iam::aws:policy/AmazonEC2ContainerRegistryReadOnly"
				}, {
					"Fn::Sub": "arn:${AWS::Partition}:iam::aws:policy/AmazonEKSWorkerNodePolicy"
				}, {
					"Fn::Sub": "arn:${AWS::Partition}:iam::aws:policy/AmazonEKS_CNI_Policy"
				}],
				"Path": "/"
			}
		}
	}
}