{
	"AWSTemplateFormatVersion": "2010-09-09",
	"Description": "AWS CFN to build different  components of the environment.",
	"Parameters": {
		"ClientName": {
			"Default": "xl-axiata",
			"Description": "Short & Single Word name of Client. To be used for tagging resources.",
			"Type": "String"
		},
		"EnvironmentName": {
			"Default": "dev",
			"Description": "Either Prod, PreProd etc. To be used for tagging resorces.",
			"Type": "String"
		},
		"AMIIDBastion": {
			"Description": "Provides the unique ID of the Amazon Machine Image (AMI)",
			"Default":"ami-05c64f7b4062b0a21",
			"Type": "AWS::EC2::Image::Id"
		},
		"InstanceTypeBastion": {
			"Description": "Provide the instance type, such as t2.micro. ",
			"AllowedValues": [
				"t2.micro",
				"t2.medium",
				"t2.large",
				"t2.xlarge",
				"t3.small",
				"t3.nano",
				"t3.large",
				"t3.xlarge",
				"m4.large",
				"m4.xlarge",
				"m5.large",
				"m5.xlarge"
			],
			"Type": "String",
			"Default":"t2.micro"

		},
		"SSHKeyNameBastion": {
			"Description": "Select the name of the Amazon EC2 key pair. ",
			"Type": "AWS::EC2::KeyPair::KeyName"
		}
	},
	"Metadata": {
		"AWS::CloudFormation::Interface": {
			"ParameterGroups": [{
				"Label": {
					"default": "Environment Configuration"
				},
				"Parameters": ["ClientName", "EnvironmentName"]
			}, {
				"Label": {
					"default": "Bastion Server Configuration"
				},
				"Parameters": ["SSHKeyNameBastion", "AMIIDBastion", "InstanceTypeBastion"]
			}]
		}
	},

	"Resources": {
		"BastionHost": {
			"Type": "AWS::EC2::Instance",
			"Properties": {
				"ImageId": {
					"Ref": "AMIIDBastion"
				},
				"InstanceType": {
					"Ref": "InstanceTypeBastion"
				},
				"KeyName": {
					"Ref": "SSHKeyNameBastion"
				},
				"UserData" :{ "Fn::Base64" : { "Fn::Join" : ["", [
							  "#!/bin/bash -xe\n",
							  "curl -o kubectl https://amazon-eks.s3-us-west-2.amazonaws.com/1.14.6/2019-08-22/bin/linux/amd64/kubectl\n",
							  "chmod +x ./kubectl\n",
							  "mkdir -p $HOME/bin && cp ./kubectl $HOME/bin/kubectl && export PATH=$PATH:$HOME/bin\n",
							  "echo 'export PATH=$PATH:$HOME/bin' >> ~/.bashrc\n",
							  "curl -o aws-iam-authenticator https://amazon-eks.s3-us-west-2.amazonaws.com/1.14.6/2019-08-22/bin/linux/amd64/aws-iam-authenticator\n",
							  "mkdir -p $HOME/bin && cp ./aws-iam-authenticator $HOME/bin/aws-iam-authenticator && export PATH=$PATH:$HOME/bin\n",
							  "chmod +x ./aws-iam-authenticator\n",
							  "echo 'export PATH=$PATH:$HOME/bin' >> ~/.bashrc\n", "\n"  
							]]}},
				"IamInstanceProfile" : {"Ref":"IAMInstanceProfile"},
				"Tags": [{
						"Key": "Name",
						"Value": {
							"Fn::Join": [
								"-", [{
										"Ref": "ClientName"
									},
									{
										"Ref": "EnvironmentName"
									},
									"Bastion-Host"
								]
							]
						}
					},
					{
						"Key": "Environment",
						"Value": {
							"Ref": "EnvironmentName"
						}
					},
					{
						"Key": "CreatedBy",
						"Value": "BlazeClan"
					}
				],
				"SubnetId": {
					"Fn::ImportValue": {						
						"Fn::Join":[
							"-", [{
								"Ref": "ClientName"
							},
							{
								"Ref": "EnvironmentName"
							},
							"public-subnet-a"
							]
						]
					}
				},
				"SecurityGroupIds": [
				 {
					"Fn::ImportValue": {						
						"Fn::Join":[
							"-", [{
								"Ref": "ClientName"
							},
							{
								"Ref": "EnvironmentName"
							},
							"bastion-sg"
							]
						]
					}
				}
				]

			}
		},
		"BastionIAMROLE": {
			"Type": "AWS::IAM::Role",
			"Properties": {
				"RoleName": "xl-axiata-bastion-host-role",
				"AssumeRolePolicyDocument": {
					"Version": "2012-10-17",
					"Statement": [{
						"Effect": "Allow",
						"Principal": {
							"Service": [
								"ec2.amazonaws.com"
							]
						},
						"Action": [
							"sts:AssumeRole"
						]
					}]
				},
				"ManagedPolicyArns": [
					"arn:aws:iam::aws:policy/AmazonEKSServicePolicy",
					"arn:aws:iam::aws:policy/AmazonEKSClusterPolicy",
					"arn:aws:iam::aws:policy/AmazonEKSWorkerNodePolicy",
					"arn:aws:iam::aws:policy/AmazonEKS_CNI_Policy",
					"arn:aws:iam::aws:policy/AmazonEC2FullAccess",
					"arn:aws:iam::aws:policy/AWSDeepRacerCloudFormationAccessPolicy"
				],
				"Policies": [{
						"PolicyName": "AmazonEKSAdminPolicy",
						"PolicyDocument": {
							"Statement": [{
								"Effect": "Allow",
								"Action": [
									"eks:*"
								],
								"Resource": "*"
							}]
						}
					},
					{
						"PolicyName": "BastionHostPolicy",
						"PolicyDocument": {
							"Statement": [{
								"Effect": "Allow",
								"Action": [
									"iam:CreateInstanceProfile",
									"iam:GetRole",
									"iam:PassRole",
									"iam:CreateRole",
									"iam:AttachRolePolicy",
									"iam:GetRolePolicy",
									"iam:AddRoleToInstanceProfile",
									"acm:*",
									"cloudwatch:*"
								],
								"Resource": "*"
							}]
						}
					}
				]
			}
		},
		"IAMInstanceProfile": {
			"Description": "IAM instance Profile created for IAM role ",
			"Type": "AWS::IAM::InstanceProfile",
			"Properties": {
				"Path": "/",
				"Roles": [{
					"Ref": "BastionIAMROLE"
				}]
			}
		}
	}
}