{
"AWSTemplateFormatVersion": "2010-09-09",
    "Description": "AWS CFN Stack to create an ECR with a lifecycle policy",
    "Metadata": {
        "AWS::CloudFormation::Interface": {
			"ParameterGroups": [{
				"Label": {
					"default": "Environment Configuration"
				},
				"Parameters": [
                    "ClientName",
                    "EnvironmentName"]
			}, {
				"Label": {
					"default": "Repository Configuration"
				},
				"Parameters": [
					"ServiceName",
                    "LifecycleMatchCriteria",
                    "LifecycleMatchCriteriaNumber"
				]
			}]
		}
    },
    "Parameters": {
        "ClientName": {
            "Default": "hrfid",
            "Description": "Short & Single Word name of Client.",
            "Type": "String",
            "MinLength": 1
        },
        "EnvironmentName": {
            "Default": "development",
            "AllowedValues": ["development", "uat","stage","production"],
            "Description": "To be used for naming ECR.",
            "Type": "String"
        },
        "ServiceName": {
            "Description": "To be used for naming ECR contain lowercase letters, numbers, hyphens, underscores, and forward slashes.",
            "MinLength": 2,
            "MaxLength": 256,
            "Type": "String"
        },
        "LifecycleMatchCriteria": {
            "Default": "imageCountMoreThan",
            "AllowedValues": ["imageCountMoreThan", "sinceImagePushed"],
            "Description": "Criteria to match an image in the lifecyle policy",
            "Type": "String"
        },
        "LifecycleMatchCriteriaNumber": {
            "Default": "10",
            "Description": "Number of days OR Number of Images after which an image is to be deleted",
            "Type": "Number",
            "MinValue": 1
        }
    },
    "Conditions" : {
        "MatchCriteria" : {"Fn::Equals" : [{"Ref" : "LifecycleMatchCriteria"}, "sinceImagePushed"]}
    },
    "Resources": {

        "ECRRepo" : {
            "Type" : "AWS::ECR::Repository",
            "Properties" : {
                "LifecyclePolicy" : {
                    "LifecyclePolicyText" : {
                        "Fn::Join" : [
                            "",[ 
                                "{\n\t", 
                                "\"rules\": [{\n\t\t\"action\": {\n\t\t\t\"type\":",
                                "\"expire\"\n\t\t},",
                                "\n\t\t\"selection\":{\n\t\t\t\"countType\": \"",
                                { "Ref": "LifecycleMatchCriteria" },
                                "\",\n\t\t\t",
                                {"Fn::If":[
                                    "MatchCriteria",
                                    "\"countUnit\": \"days\",",
                                    ""
                                    ]
                                },
                                "\n\t\t\t\"countNumber\": ",
                                { "Ref": "LifecycleMatchCriteriaNumber" },
                                ",\n\t\t\t\"tagStatus\": \"any\"\n\t\t},",
                                "\n\t\t\"description\": \"Lifecycle Policy\",",
                                "\n\t\t\"rulePriority\": 1",
                                "\n\t}]",
                                "\n}"
                            ]
                        ]
                    }
                    
                },
                "RepositoryName" : {
                    "Fn::Join" : [
                        "-", [ 
                            { "Ref": "ClientName" },
                            { "Ref": "EnvironmentName" },
                            { "Ref": "ServiceName" }
                        ]
                    ]
                }
            }
        }
    },
    "Outputs": {

    }
}