{
	"AWSTemplateFormatVersion": "2010-09-09",
	"Parameters": {
		"ECSClusterName": {
			"Default": "ECS-cluster",
			"Type": "String"
		},
		"EnvironmentName": {
			"Default": "Development",
			"AllowedValues": ["UAT", "Development", "Stage", "Production"],
			"Description": "Either Prod, Staging, Demo etc. To be used for tagging resorces.",
			"Type": "String"
		},
		"ClientName": {
			"Default": "HRFID",
			"Description": "Short & Single Word name of Client. To be used for tagging resources.",
			"Type": "String"
		}
	},
	"Resources": {
		"Type": "AWS::ECS::TaskDefinition",
		"Properties": {
			"ContainerDefinitions": [ContainerDefinition, ...],
			"Cpu": String,
			"ExecutionRoleArn": String,
			"Family": String,
			"IpcMode": String,
			"Memory": String,
			"NetworkMode": String,
			"PidMode": String,
			"PlacementConstraints": [TaskDefinitionPlacementConstraint, ...],
			"ProxyConfiguration": ProxyConfiguration,
			"RequiresCompatibilities": [String, ...],
			"Tags": [Tag, ...],
			"TaskRoleArn": String,
			"Volumes": [Volume, ...]
		}
	}
}