Domain Name,Record Name,Record Type,Record Value
cityworx.io,_2bdd0e24058dc2aa4fc23e1a50b2af08.cityworx.io.,CNAME,_855563d026229211a32795820ec87328.zdxcnfdgtt.acm-validations.aws.
*.cityworx.io,_2bdd0e24058dc2aa4fc23e1a50b2af08.cityworx.io.,CNAME,_855563d026229211a32795820ec87328.zdxcnfdgtt.acm-validations.aws.
