Domain Name,Record Name,Record Type,Record Value
kulincare.com.au,_a31f3e5417e32473b748b5e3b8903d65.kulincare.com.au.,CNAME,_0b036d8dd0a7f99b3e279eadf22ff953.zdxcnfdgtt.acm-validations.aws.
*.kulincare.com.au,_a31f3e5417e32473b748b5e3b8903d65.kulincare.com.au.,CNAME,_0b036d8dd0a7f99b3e279eadf22ff953.zdxcnfdgtt.acm-validations.aws.
