{
    "AWSTemplateFormatVersion": "2010-09-09",
    "Description": "AWS CFN to Create Cost Optimization report & mail it via SES",
    "Parameters": {
        "S3BucketName": {
            "Description": "Give the Name Of S3 Bucket Where your Boto3 Code is present",
            "Type": "String"
        },
        "Subject": {
            "Description": "Give the Subjectline to be sent in Email",
            "Type": "String"
        },
        "S3KeyArtifacts": {
            "Description": "Give the exact Name of zip file which is stored in S3 Bucket",
            "Type": "String",
            "Default": "EBS_Vol.zip"
        }
    },
    "Resources": {
        "LambdaIAMRole": {
            "Type": "AWS::IAM::Role",
            "Properties": {
                "AssumeRolePolicyDocument": {
                    "Version": "2012-10-17",
                    "Statement": [
                        {
                            "Effect": "Allow",
                            "Principal": {
                                "Service": [
                                    "lambda.amazonaws.com"
                                ]
                            },
                            "Action": [
                                "sts:AssumeRole"
                            ]
                        }
                    ]
                },
                "Path": "/",
                "Policies": [
                    {
                        "PolicyName": "root",
                        "PolicyDocument": {
                            "Version": "2012-10-17",
                            "Statement": [
                                {
                                    "Effect": "Allow",
                                    "Action": [
                                        "ec2:Describe*",
                                        "elasticloadbalancing:Describe*",
                                        "cloudwatch:ListMetrics",
                                        "cloudwatch:GetMetricStatistics",
                                        "cloudwatch:Describe*",
                                        "autoscaling:Describe*",
                                        "ses:SendEmail",
                                        "ses:SendRawEmail"
                                    ],
                                    "Resource": "*"
                                }
                            ]
                        }
                    }
                ]
            }
        },
        "EBSLambdaFunction": {
            "Type": "AWS::Lambda::Function",
            "Properties": {
                "FunctionName": "RPN-EBS-Volume-Report",
                "Handler": "lambda_function.lambda_handler",
                "Environment": {
                    "Variables": {
                        "Account_Id": {
                            "Ref": "AWS::AccountId"
                        },
                        "Subjectline": {
                            "Ref": "Subject"
                        }
                    }
                },
                "Role": {
                    "Fn::GetAtt": [
                        "LambdaIAMRole",
                        "Arn"
                    ]
                },
                "Code": {
                    "S3Bucket": {
                        "Ref": "S3BucketName"
                    },
                    "S3Key": {
                        "Ref": "S3KeyArtifacts"
                    }
                },
                "Runtime": "python2.7",
                "Timeout": 600,
                "MemorySize": 320
            }
        },
        "ScheduledRule": {
            "Type": "AWS::Events::Rule",
            "DependsOn": "EBSLambdaFunction",
            "Properties": {
                "Description": "ScheduledRule",
                "ScheduleExpression": "cron(0 0 1 * ? *)",
                "State": "ENABLED",
                "Targets": [
                    {
                        "Arn": {
                            "Fn::GetAtt": [
                                "EBSLambdaFunction",
                                "Arn"
                            ]
                        },
                        "Id": "TargetFunctionV1"
                    }
                ]
            }
        },
        "PermissionForEventsToInvokeLambda": {
            "Type": "AWS::Lambda::Permission",
            "Properties": {
                "FunctionName": "RPN-EBS-Volume-Report",
                "Action": "lambda:InvokeFunction",
                "Principal": "events.amazonaws.com",
                "SourceArn": {
                    "Fn::GetAtt": [
                        "ScheduledRule",
                        "Arn"
                    ]
                }
            }
        }
    }
}